jsonFlickrApi({"photos":{"page":1, "pages":93, "perpage":100, "total":"9297", "photo":[{"id":"8200013689", "owner":"87255631@N07", "secret":"a4c436b85f", "server":"8200", "farm":9, "title":"Day 51: 2012.11.18 Fall leaves", "ispublic":1, "isfriend":0, "isfamily":0}, {"id":"8199403885", "owner":"89918328@N07", "secret":"6146b6f3d4", "server":"8484", "farm":9, "title":"Mozart Statue in Vienna", "ispublic":1, "isfriend":0, "isfamily":0}, {"id":"8199409209", "owner":"89918328@N07", "secret":"e90ce30a50", "server":"8480", "farm":9, "title":"Mozart Statue in Vienna", "ispublic":1, "isfriend":0, "isfamily":0}, {"id":"8199419968", "owner":"48108866@N00", "secret":"0b0e275c75", "server":"8201", "farm":9, "title":"Previous stereo system", "ispublic":1, "isfriend":0, "isfamily":0}, {"id":"8187127069", "owner":"71881782@N08", "secret":"fe84c8f6d4", "server":"8199", "farm":9, "title":"Salzburg", "ispublic":1, "isfriend":0, "isfamily":0}, {"id":"8184310150", "owner":"11887088@N00", "secret":"7e4ae808d8", "server":"8337", "farm":9, "title":"Ludwig van Beethoven's Grave", "ispublic":1, "isfriend":0, "isfamily":0}, {"id":"8172026166", "owner":"41621285@N03", "secret":"53bfaa53fc", "server":"8339", "farm":9, "title":"Mozarts Hammerfl\u00fcgel", "ispublic":1, "isfriend":0, "isfamily":0}, {"id":"8162340834", "owner":"71095368@N00", "secret":"52f2cbe14b", "server":"7267", "farm":8, "title":"DRUNK", "ispublic":1, "isfriend":0, "isfamily":0}, {"id":"8160974595", "owner":"10485812@N02", "secret":"248f03439e", "server":"8198", "farm":9, "title":"Zauberfl\u00f6te", "ispublic":1, "isfriend":0, "isfamily":0}, {"id":"8153344314", "owner":"89425531@N06", "secret":"d04120c7ac", "server":"7120", "farm":8, "title":"Wenen - Mozart rust even...", "ispublic":1, "isfriend":0, "isfamily":0}, {"id":"8145491684", "owner":"14333842@N07", "secret":"608bf5793a", "server":"8463", "farm":9, "title":"Wolfgang Amadeus Mozart (811147)", "ispublic":1, "isfriend":0, "isfamily":0}, {"id":"8145466866", "owner":"14333842@N07", "secret":"a5d820f343", "server":"8468", "farm":9, "title":"Wolfgang Amadeus Mozart (811146)", "ispublic":1, "isfriend":0, "isfamily":0}, {"id":"8139133791", "owner":"21249176@N06", "secret":"bd3bc373df", "server":"8196", "farm":9, "title":"Mozart Monument & Hofburg Palace (1279) from Opernring, Vienna AT", "ispublic":1, "isfriend":0, "isfamily":0}, {"id":"8130701889", "owner":"9912870@N04", "secret":"a8cb4dcf04", "server":"8475", "farm":9, "title":"The imposing #Vienna #opera house opened with #Mozart's Don Giovanni in 1869. #staatsoper #Austria #travel", "ispublic":1, "isfriend":0, "isfamily":0}, {"id":"8123076383", "owner":"60329982@N02", "secret":"349f79ce92", "server":"8193", "farm":9, "title":"Stephansdom - Stephansplatz- Innere Stadt -Vienna- (2)", "ispublic":1, "isfriend":0, "isfamily":0}, {"id":"8121242044", "owner":"14333842@N07", "secret":"39c9bf95fa", "server":"8192", "farm":9, "title":"Wolfgang Amadeus Mozart (810910)", "ispublic":1, "isfriend":0, "isfamily":0}, {"id":"8121227408", "owner":"14333842@N07", "secret":"a5c5a1b42a", "server":"8054", "farm":9, "title":"Wolfgang Amadeus Mozart (810907)", "ispublic":1, "isfriend":0, "isfamily":0}, {"id":"8097032567", "owner":"22012453@N06", "secret":"1ae0fbc3bc", "server":"8331", "farm":9, "title":"\u7ef4\u4e5f\u7eb3\u57ce\u5e02\u516c\u5712 Wiener Stadtpark", "ispublic":1, "isfriend":0, "isfamily":0}, {"id":"8096934325", "owner":"22012453@N06", "secret":"ec91c75024", "server":"8193", "farm":9, "title":"\u91d1\u8272\u5927\u5ef3\u97f3\u6a02\u6703  goldener Saal", "ispublic":1, "isfriend":0, "isfamily":0}, {"id":"8097026788", "owner":"22012453@N06", "secret":"78b935e3f8", "server":"8325", "farm":9, "title":"\u7ef4\u4e5f\u7eb3\u57ce\u5e02\u516c\u5712 Wiener Stadtpark", "ispublic":1, "isfriend":0, "isfamily":0}, {"id":"8097139598", "owner":"22012453@N06", "secret":"20c7de561e", "server":"8186", "farm":9, "title":"\u7dad\u4e5f\u7d0d\u570b\u5bb6\u6b4c\u5287\u9662  Wiener Staatsoper", "ispublic":1, "isfriend":0, "isfamily":0}, {"id":"8097043011", "owner":"22012453@N06", "secret":"26afe63d95", "server":"8335", "farm":9, "title":"\u7dad\u4e5f\u7d0d\u570b\u5bb6\u6b4c\u5287\u9662  Wiener Staatsoper", "ispublic":1, "isfriend":0, "isfamily":0}, {"id":"8097001250", "owner":"22012453@N06", "secret":"eea2f921fa", "server":"8474", "farm":9, "title":"\u91d1\u8272\u5927\u5ef3\u97f3\u6a02\u6703  goldener Saal", "ispublic":1, "isfriend":0, "isfamily":0}, {"id":"8096964593", "owner":"22012453@N06", "secret":"01a6c304cd", "server":"8336", "farm":9, "title":"\u91d1\u8272\u5927\u5ef3\u97f3\u6a02\u6703  goldener Saal", "ispublic":1, "isfriend":0, "isfamily":0}, {"id":"8193399101", "owner":"68432253@N04", "secret":"8037bb112f", "server":"8210", "farm":9, "title":"Mozart with Audience", "ispublic":1, "isfriend":0, "isfamily":0}, {"id":"8193403723", "owner":"68432253@N04", "secret":"72d25047a5", "server":"8342", "farm":9, "title":"Mozart's Prop Box", "ispublic":1, "isfriend":0, "isfamily":0}, {"id":"8193396739", "owner":"68432253@N04", "secret":"8ee581cd4c", "server":"8057", "farm":9, "title":"Mozart meets Jane", "ispublic":1, "isfriend":0, "isfamily":0}, {"id":"8193379591", "owner":"68432253@N04", "secret":"6f00423b93", "server":"8481", "farm":9, "title":"Mozart Outside Schloss Sch\u00f6nbrunn", "ispublic":1, "isfriend":0, "isfamily":0}, {"id":"8169588252", "owner":"23411764@N05", "secret":"74ed6e49e2", "server":"7123", "farm":8, "title":"", "ispublic":1, "isfriend":0, "isfamily":0}, {"id":"8165582740", "owner":"87137258@N07", "secret":"86ab2f8bc3", "server":"7271", "farm":8, "title":"Mozart in the park", "ispublic":1, "isfriend":0, "isfamily":0}, {"id":"8162312253", "owner":"71095368@N00", "secret":"f219cb56da", "server":"7251", "farm":8, "title":"BOND", "ispublic":1, "isfriend":0, "isfamily":0}, {"id":"8154372001", "owner":"18569201@N00", "secret":"103ac31490", "server":"8342", "farm":9, "title":"Der gute Herr Mozart", "ispublic":1, "isfriend":0, "isfamily":0}, {"id":"8153245013", "owner":"41621285@N03", "secret":"a25e8abb69", "server":"8205", "farm":9, "title":"Eingang zur Mozartwohnung Domgasse", "ispublic":1, "isfriend":0, "isfamily":0}, {"id":"8150279982", "owner":"39959787@N06", "secret":"d6815d09f0", "server":"8051", "farm":9, "title":"Wien, 1. Bezirk, Art of Facades of Vienna, Hotel Sacher - Caf\u00e9 Mozart (Albertinaplatz)", "ispublic":1, "isfriend":0, "isfamily":0}, {"id":"8150280920", "owner":"39959787@N06", "secret":"c7cc3c627b", "server":"8469", "farm":9, "title":"Wien, 1. Bezirk, Art of Facades of Vienna, Hotel Sacher - Caf\u00e9 Mozart (Maysedergasse)", "ispublic":1, "isfriend":0, "isfamily":0}, {"id":"8150280424", "owner":"39959787@N06", "secret":"424c872d26", "server":"8332", "farm":9, "title":"Wien, 1. Bezirk, Art of Facades of Vienna, Hotel Sacher - Caf\u00e9 Mozart (Maysedergasse)", "ispublic":1, "isfriend":0, "isfamily":0}, {"id":"8150279086", "owner":"39959787@N06", "secret":"f26953a0b8", "server":"8045", "farm":9, "title":"Wien, 1. Bezirk, Art of Facades of Vienna, Hotel Sacher - Caf\u00e9 Mozart (Albertinaplatz)", "ispublic":1, "isfriend":0, "isfamily":0}, {"id":"8145359876", "owner":"31762794@N03", "secret":"7e47dde466", "server":"8324", "farm":9, "title":"T\u01b0\u01a1\u0323ng Mozart trong v\u01b0\u01a1\u0300n c\u00e2y \u01a1\u0309 Vienna-Austra", "ispublic":1, "isfriend":0, "isfamily":0}, {"id":"8141516149", "owner":"53046105@N07", "secret":"642c71c962", "server":"8191", "farm":9, "title":"Visiting Mozart", "ispublic":1, "isfriend":0, "isfamily":0}, {"id":"8128722460", "owner":"25349068@N04", "secret":"2585c1b5fb", "server":"8194", "farm":9, "title":"IMG_8740", "ispublic":1, "isfriend":0, "isfamily":0}, {"id":"8124540327", "owner":"89178625@N03", "secret":"30b231901b", "server":"8052", "farm":9, "title":"16\/10\/2012", "ispublic":1, "isfriend":0, "isfamily":0}, {"id":"8116527196", "owner":"44719612@N00", "secret":"fc31542a05", "server":"8465", "farm":9, "title":"Mozart concert ticketing", "ispublic":1, "isfriend":0, "isfamily":0}, {"id":"8115764333", "owner":"89067960@N03", "secret":"b3ded2c39e", "server":"8470", "farm":9, "title":"Vienna, Mozart's pad", "ispublic":1, "isfriend":0, "isfamily":0}, {"id":"8109227658", "owner":"89003315@N06", "secret":"102bcce322", "server":"8474", "farm":9, "title":"Vienna - Mozart slept here.", "ispublic":1, "isfriend":0, "isfamily":0}, {"id":"8103400307", "owner":"39322289@N08", "secret":"540b44395f", "server":"8195", "farm":9, "title":"Vienna Mozart Orchestra \/ Golden Hall, Musikverein Vienna", "ispublic":1, "isfriend":0, "isfamily":0}, {"id":"8103399375", "owner":"39322289@N08", "secret":"4fdc05caeb", "server":"8191", "farm":9, "title":"Vienna Mozart Orchestra \/ Golden Hall, Musikverein Vienna", "ispublic":1, "isfriend":0, "isfamily":0}, {"id":"8103403885", "owner":"39322289@N08", "secret":"215d9438e8", "server":"8331", "farm":9, "title":"Vienna Mozart Orchestra \/ Golden Hall, Musikverein Vienna", "ispublic":1, "isfriend":0, "isfamily":0}, {"id":"8103403097", "owner":"39322289@N08", "secret":"174c1b5096", "server":"8335", "farm":9, "title":"Vienna Mozart Orchestra \/ Golden Hall, Musikverein Vienna", "ispublic":1, "isfriend":0, "isfamily":0}, {"id":"8103406399", "owner":"39322289@N08", "secret":"d7161a9087", "server":"8472", "farm":9, "title":"Vienna Mozart Orchestra \/ Golden Hall, Musikverein Vienna", "ispublic":1, "isfriend":0, "isfamily":0}, {"id":"8103408441", "owner":"39322289@N08", "secret":"61e5bf56c3", "server":"8047", "farm":9, "title":"Vienna Mozart Orchestra \/ Golden Hall, Musikverein Vienna", "ispublic":1, "isfriend":0, "isfamily":0}, {"id":"8103404975", "owner":"39322289@N08", "secret":"4778900a0d", "server":"8052", "farm":9, "title":"Vienna Mozart Orchestra \/ Golden Hall, Musikverein Vienna", "ispublic":1, "isfriend":0, "isfamily":0}, {"id":"8103425240", "owner":"39322289@N08", "secret":"e53247fa0c", "server":"8052", "farm":9, "title":"Golden Hall, Musikverein Vienna", "ispublic":1, "isfriend":0, "isfamily":0}, {"id":"8103409181", "owner":"39322289@N08", "secret":"c36a6dceaa", "server":"8332", "farm":9, "title":"Vienna Mozart Orchestra \/ Golden Hall, Musikverein Vienna", "ispublic":1, "isfriend":0, "isfamily":0}, {"id":"8103401775", "owner":"39322289@N08", "secret":"a00d54d9e6", "server":"8476", "farm":9, "title":"Vienna Mozart Orchestra \/ Golden Hall, Musikverein Vienna", "ispublic":1, "isfriend":0, "isfamily":0}, {"id":"8103411219", "owner":"39322289@N08", "secret":"195e3bfecf", "server":"8323", "farm":9, "title":"Musikverein Vienna", "ispublic":1, "isfriend":0, "isfamily":0}, {"id":"8103410471", "owner":"39322289@N08", "secret":"ae5513d80b", "server":"8469", "farm":9, "title":"Vienna Mozart Orchestra \/ Golden Hall, Musikverein Vienna", "ispublic":1, "isfriend":0, "isfamily":0}, {"id":"8103415480", "owner":"39322289@N08", "secret":"6d494e1dcf", "server":"8336", "farm":9, "title":"Vienna Mozart Orchestra \/ Golden Hall, Musikverein Vienna", "ispublic":1, "isfriend":0, "isfamily":0}, {"id":"8103421972", "owner":"39322289@N08", "secret":"44aabfb6f4", "server":"8331", "farm":9, "title":"Vienna Mozart Orchestra \/ Golden Hall, Musikverein Vienna", "ispublic":1, "isfriend":0, "isfamily":0}, {"id":"8099662987", "owner":"63185794@N04", "secret":"12032c3694", "server":"8328", "farm":9, "title":"Mozart statue (5\/121)", "ispublic":1, "isfriend":0, "isfamily":0}, {"id":"8098453879", "owner":"24939884@N02", "secret":"676de4a27e", "server":"8331", "farm":9, "title":"Mozart having a break :)", "ispublic":1, "isfriend":0, "isfamily":0}, {"id":"8096975048", "owner":"22012453@N06", "secret":"9bc481df51", "server":"8335", "farm":9, "title":"\u91d1\u8272\u5927\u5ef3\u97f3\u6a02\u6703  goldener Saal", "ispublic":1, "isfriend":0, "isfamily":0}, {"id":"8097058787", "owner":"22012453@N06", "secret":"9d1ac88417", "server":"8043", "farm":9, "title":"\u7dad\u4e5f\u7d0d\u570b\u5bb6\u6b4c\u5287\u9662  Wiener Staatsoper", "ispublic":1, "isfriend":0, "isfamily":0}, {"id":"8096948121", "owner":"22012453@N06", "secret":"5a919a34cf", "server":"8049", "farm":9, "title":"\u91d1\u8272\u5927\u5ef3\u97f3\u6a02\u6703  goldener Saal", "ispublic":1, "isfriend":0, "isfamily":0}, {"id":"8097097642", "owner":"22012453@N06", "secret":"8c5c93db6c", "server":"8045", "farm":9, "title":"\u7dad\u4e5f\u7d0d\u570b\u5bb6\u6b4c\u5287\u9662  Wiener Staatsoper", "ispublic":1, "isfriend":0, "isfamily":0}, {"id":"8097174498", "owner":"22012453@N06", "secret":"0dd5560402", "server":"8183", "farm":9, "title":"\u7dad\u4e5f\u7d0d\u8857\u666f", "ispublic":1, "isfriend":0, "isfamily":0}, {"id":"8097243968", "owner":"22012453@N06", "secret":"2e41973d95", "server":"8464", "farm":9, "title":"\u81ea\u7136\u53f2\u535a\u7269\u9986", "ispublic":1, "isfriend":0, "isfamily":0}, {"id":"8097085212", "owner":"22012453@N06", "secret":"22f20debb1", "server":"8333", "farm":9, "title":"\u7dad\u4e5f\u7d0d\u570b\u5bb6\u6b4c\u5287\u9662  Wiener Staatsoper", "ispublic":1, "isfriend":0, "isfamily":0}, {"id":"8097208914", "owner":"22012453@N06", "secret":"ccd366eaaa", "server":"8469", "farm":9, "title":"\u970d\u592b\u5821\u5bae\u6bbf", "ispublic":1, "isfriend":0, "isfamily":0}, {"id":"8097000389", "owner":"22012453@N06", "secret":"1cba933566", "server":"8334", "farm":9, "title":"\u91d1\u8272\u5927\u5ef3\u97f3\u6a02\u6703  goldener Saal", "ispublic":1, "isfriend":0, "isfamily":0}, {"id":"8096994744", "owner":"22012453@N06", "secret":"89660848ac", "server":"8324", "farm":9, "title":"\u91d1\u8272\u5927\u5ef3\u97f3\u6a02\u6703  goldener Saal", "ispublic":1, "isfriend":0, "isfamily":0}, {"id":"8097200104", "owner":"22012453@N06", "secret":"69ff9382e0", "server":"8191", "farm":9, "title":"\u970d\u592b\u5821\u5bae\u6bbf", "ispublic":1, "isfriend":0, "isfamily":0}, {"id":"8097157841", "owner":"22012453@N06", "secret":"5796a821f6", "server":"8047", "farm":9, "title":"\u7dad\u4e5f\u7d0d\u8857\u666f", "ispublic":1, "isfriend":0, "isfamily":0}, {"id":"8097125575", "owner":"22012453@N06", "secret":"6e20a09351", "server":"8048", "farm":9, "title":"\u7dad\u4e5f\u7d0d\u570b\u5bb6\u6b4c\u5287\u9662  Wiener Staatsoper", "ispublic":1, "isfriend":0, "isfamily":0}, {"id":"8097204257", "owner":"22012453@N06", "secret":"b487252955", "server":"8185", "farm":9, "title":"\u970d\u592b\u5821\u5bae\u6bbf", "ispublic":1, "isfriend":0, "isfamily":0}, {"id":"8097154996", "owner":"22012453@N06", "secret":"fb2af12967", "server":"8476", "farm":9, "title":"\u7dad\u4e5f\u7d0d\u570b\u5bb6\u6b4c\u5287\u9662  Wiener Staatsoper", "ispublic":1, "isfriend":0, "isfamily":0}, {"id":"8096979670", "owner":"22012453@N06", "secret":"dde9ac0555", "server":"8051", "farm":9, "title":"\u91d1\u8272\u5927\u5ef3\u97f3\u6a02\u6703  goldener Saal", "ispublic":1, "isfriend":0, "isfamily":0}, {"id":"8097229553", "owner":"22012453@N06", "secret":"1891c4bc5b", "server":"8186", "farm":9, "title":"\u970d\u592b\u5821\u5bae\u6bbf", "ispublic":1, "isfriend":0, "isfamily":0}, {"id":"8097226463", "owner":"22012453@N06", "secret":"0ff5bca815", "server":"8051", "farm":9, "title":"\u970d\u592b\u5821\u5bae\u6bbf", "ispublic":1, "isfriend":0, "isfamily":0}, {"id":"8097156279", "owner":"22012453@N06", "secret":"1f7034cf68", "server":"8053", "farm":9, "title":"\u7dad\u4e5f\u7d0d\u570b\u5bb6\u6b4c\u5287\u9662  Wiener Staatsoper", "ispublic":1, "isfriend":0, "isfamily":0}, {"id":"8097045604", "owner":"22012453@N06", "secret":"ed7c7ce70d", "server":"8046", "farm":9, "title":"\u7dad\u4e5f\u7d0d\u570b\u5bb6\u6b4c\u5287\u9662  Wiener Staatsoper", "ispublic":1, "isfriend":0, "isfamily":0}, {"id":"8097181550", "owner":"22012453@N06", "secret":"39bb2315af", "server":"8196", "farm":9, "title":"\u7dad\u4e5f\u7d0d\u8c6c\u6392", "ispublic":1, "isfriend":0, "isfamily":0}, {"id":"8097051027", "owner":"22012453@N06", "secret":"3ecf5c6e0e", "server":"8190", "farm":9, "title":"\u5361\u62c9\u63da \u7dad\u4e5f\u7d0d\u570b\u5bb6\u6b4c\u5287\u9662  Wiener Staatsoper", "ispublic":1, "isfriend":0, "isfamily":0}, {"id":"8097073998", "owner":"22012453@N06", "secret":"1316032e4f", "server":"8193", "farm":9, "title":"\u7dad\u4e5f\u7d0d\u570b\u5bb6\u6b4c\u5287\u9662  Wiener Staatsoper", "ispublic":1, "isfriend":0, "isfamily":0}, {"id":"8097222257", "owner":"22012453@N06", "secret":"7e6102bf48", "server":"8335", "farm":9, "title":"\u970d\u592b\u5821\u5bae\u6bbf", "ispublic":1, "isfriend":0, "isfamily":0}, {"id":"8097053954", "owner":"22012453@N06", "secret":"2d3d093f3a", "server":"8470", "farm":9, "title":"\u7dad\u4e5f\u7d0d\u570b\u5bb6\u6b4c\u5287\u9662  Wiener Staatsoper", "ispublic":1, "isfriend":0, "isfamily":0}, {"id":"8097208013", "owner":"22012453@N06", "secret":"c49c1e1266", "server":"8472", "farm":9, "title":"Schatzkammer", "ispublic":1, "isfriend":0, "isfamily":0}, {"id":"8097173044", "owner":"22012453@N06", "secret":"91e1517a0c", "server":"8046", "farm":9, "title":"\u7dad\u4e5f\u7d0d\u8857\u666f", "ispublic":1, "isfriend":0, "isfamily":0}, {"id":"8097108417", "owner":"22012453@N06", "secret":"ca4d9702ac", "server":"8045", "farm":9, "title":"\u7dad\u4e5f\u7d0d\u570b\u5bb6\u6b4c\u5287\u9662  Wiener Staatsoper", "ispublic":1, "isfriend":0, "isfamily":0}, {"id":"8097234934", "owner":"22012453@N06", "secret":"916f54c72a", "server":"8188", "farm":9, "title":"\u970d\u592b\u5821\u5bae\u6bbf", "ispublic":1, "isfriend":0, "isfamily":0}, {"id":"8097240938", "owner":"22012453@N06", "secret":"df53c9c1b4", "server":"8333", "farm":9, "title":"\u81ea\u7136\u53f2\u535a\u7269\u9986", "ispublic":1, "isfriend":0, "isfamily":0}, {"id":"8097195234", "owner":"22012453@N06", "secret":"e07c24a202", "server":"8055", "farm":9, "title":"Peterskirche", "ispublic":1, "isfriend":0, "isfamily":0}, {"id":"8097180531", "owner":"22012453@N06", "secret":"a205939d82", "server":"8191", "farm":9, "title":"\u7dad\u4e5f\u7d0d\u8c6c\u6392", "ispublic":1, "isfriend":0, "isfamily":0}, {"id":"8097162806", "owner":"22012453@N06", "secret":"006bf28443", "server":"8476", "farm":9, "title":"\u7dad\u4e5f\u7d0d\u570b\u5bb6\u6b4c\u5287\u9662  Wiener Staatsoper", "ispublic":1, "isfriend":0, "isfamily":0}, {"id":"8097149591", "owner":"22012453@N06", "secret":"40c7056a6a", "server":"8328", "farm":9, "title":"\u7dad\u4e5f\u7d0d\u570b\u5bb6\u6b4c\u5287\u9662  Wiener Staatsoper", "ispublic":1, "isfriend":0, "isfamily":0}, {"id":"8097118691", "owner":"22012453@N06", "secret":"3d7de086b8", "server":"8044", "farm":9, "title":"\u7dad\u4e5f\u7d0d\u570b\u5bb6\u6b4c\u5287\u9662  Wiener Staatsoper", "ispublic":1, "isfriend":0, "isfamily":0}, {"id":"8097056453", "owner":"22012453@N06", "secret":"a8f7bc21be", "server":"8044", "farm":9, "title":"\u7dad\u4e5f\u7d0d\u570b\u5bb6\u6b4c\u5287\u9662  Wiener Staatsoper", "ispublic":1, "isfriend":0, "isfamily":0}, {"id":"8097148306", "owner":"22012453@N06", "secret":"e764f00954", "server":"8053", "farm":9, "title":"\u7dad\u4e5f\u7d0d\u570b\u5bb6\u6b4c\u5287\u9662  Wiener Staatsoper", "ispublic":1, "isfriend":0, "isfamily":0}, {"id":"8097203242", "owner":"22012453@N06", "secret":"06083079cf", "server":"8196", "farm":9, "title":"\u7dad\u4e5f\u7d0d\u820a\u57ce\u7246", "ispublic":1, "isfriend":0, "isfamily":0}, {"id":"8097063515", "owner":"22012453@N06", "secret":"e8eb95b5a1", "server":"8045", "farm":9, "title":"\u7dad\u4e5f\u7d0d\u570b\u5bb6\u6b4c\u5287\u9662  Wiener Staatsoper", "ispublic":1, "isfriend":0, "isfamily":0}, {"id":"8097181781", "owner":"22012453@N06", "secret":"44d0dcc6e4", "server":"8046", "farm":9, "title":"\u9f20\u75ab\u7d00\u5ff5\u7891 Pests\u00e4ule", "ispublic":1, "isfriend":0, "isfamily":0}]}, "stat":"ok"})